{"success":true,"msg":"Data fetched successfully","data":[{"pid":27381,"url":"https://www.homewiseappliance.com/whirlpool-24-inch-eco-series-dishwasher-stainless-steel-wdts7024rz","price":709,"title":"Whirlpool Eco Series 24 Inch Fully Integrated Dishwasher with 15 Place Settings, 41 dBa, 5 Wash Cycles, Washing 3rd Rack, Sensor Cycle, Quick Wash, Sani Rinse, and NSF Certified","large_image":["https://d29l4doet7kzwj.cloudfront.net/ProductImage/aec2bb07540646de.png"],"thumb_image":"https://d29l4doet7kzwj.cloudfront.net/ProductImage/aec2bb07540646de.png","brand":"Whirlpool","isPremium":false,"isWifiEnabled":false,"isRebateAvailable":false,"isOpenBoxOnly":false,"productType":"product","sellableQuantity":11,"topDeal":true,"isInStock":true,"deliveryRouteDetails":["routeClass_2_deliveryRoute_4","routeClass_3_deliveryRoute_5","routeClass_3_deliveryRoute_6","routeClass_3_deliveryRoute_7","routeClass_3_deliveryRoute_8","routeClass_3_deliveryRoute_12","routeClass_4_deliveryRoute_13","routeClass_4_deliveryRoute_14","routeClass_5_deliveryRoute_15"],"applianceType":"Major Appliance","implementWebPdpCartMapOnly":false,"id":27381,"productSpecification.Accepts_Panels":"No","specialBuy":false,"topSixSpecifications":"[{\"specificationId\":698700,\"key\":\"Dishwasher Size (in.)\",\"value\":\"24\\\"\"},{\"specificationId\":698736,\"key\":\"Decibels (dBA)\",\"value\":\"41 dBA\"},{\"specificationId\":698725,\"key\":\"Control Location\",\"value\":\"Top Control\"},{\"specificationId\":698701,\"key\":\"Height (in.)\",\"value\":\"33.63\\\"\"},{\"specificationId\":698702,\"key\":\"Width (in.)\",\"value\":\"23.88\\\"\"},{\"specificationId\":698703,\"key\":\"Depth (in.)\",\"value\":\"26.75\\\"\"}]","bestSeller":true,"storeIds":[99,93,95,100,98,97],"saleOnWebsite":true,"implementWebSeeSalePriceInCart":false,"webPriceInactive":false,"subCategoryId":359,"categoryName":"Dishwashers","categoryId":350,"sku":"WDTS7024RZ","quantity":11,"bStock":false,"isThisOpenBox":false,"openBoxPrice":602.65,"floorMatrix":true,"soldQuantity":0,"productName":"Whirlpool Eco Series 24 Inch Fully Integrated Dishwasher with 15 Place Settings, 41 dBa, 5 Wash Cycles, Washing 3rd Rack, Sensor Cycle, Quick Wash, Sani Rinse, and NSF Certified","hasBuyMoreSaveMore":true,"pdpSeoUrl":"whirlpool-24-inch-eco-series-dishwasher-stainless-steel-wdts7024rz","status":"A","websiteActive":true,"deliveryRouteTokens":["routeClass_2_zip_1","routeClass_3_zip_2","routeClass_4_zip_3","routeClass_5_zip_4"],"isOpenBoxAvailable":true,"msrp":1049,"brandId":27,"conditionName":"Good","productSpecification":[{"specificationId":698700,"key":"Dishwasher Size (in.)","value":"24\""},{"specificationId":698736,"key":"Decibels (dBA)","value":"41 dBA"},{"specificationId":698725,"key":"Control Location","value":"Top Control"},{"specificationId":698701,"key":"Height (in.)","value":"33.63\""},{"specificationId":698702,"key":"Width (in.)","value":"23.88\""},{"specificationId":698703,"key":"Depth (in.)","value":"26.75\""}],"price_details":{"savingAmount":340,"crossedPrice":1049,"savingPercentage":32.41,"displayPrice":709},"orderStatus":"","rebates":[],"clearance":false,"isPanelReady":false,"productList":[]},{"pid":338,"url":"https://www.homewiseappliance.com/cafe-24-fully-integrated-built-in-smart-dishwasher-cdt858p2vs1","price":1029,"title":"Cafe 24 Inch Fully Integrated Built-In Smart Dishwasher with 16 Place Setting Capacity, 6 Wash Cycles Built-In Smart Dishwasher","large_image":["https://d1y6ucal9je0uy.cloudfront.net/ProductImage/CDT858P2VS1.png"],"thumb_image":"https://d29l4doet7kzwj.cloudfront.net/ProductImage/2d0239c22f04cbe5.png","brand":"Cafe","isPremium":false,"isWifiEnabled":true,"isRebateAvailable":true,"isOpenBoxOnly":false,"productType":"product","sellableQuantity":6,"topDeal":true,"isInStock":true,"deliveryRouteDetails":["routeClass_2_deliveryRoute_4","routeClass_3_deliveryRoute_5","routeClass_3_deliveryRoute_7","routeClass_3_deliveryRoute_12","routeClass_4_deliveryRoute_13","routeClass_4_deliveryRoute_14","routeClass_5_deliveryRoute_15"],"applianceType":"Major Appliance","rebateIds":[396,373],"implementWebPdpCartMapOnly":false,"id":338,"productSpecification.Accepts_Panels":"No","specialBuy":false,"topSixSpecifications":"[{\"specificationId\":177598,\"key\":\"Dishwasher Size (in.)\",\"value\":\"24\\\"\"},{\"specificationId\":177687,\"key\":\"Decibels (dBA)\",\"value\":\"44 dBA\"},{\"specificationId\":177662,\"key\":\"Control Location\",\"value\":\"Top Control\"},{\"specificationId\":177600,\"key\":\"Height (in.)\",\"value\":\"34\\\"\"},{\"specificationId\":177602,\"key\":\"Width (in.)\",\"value\":\"23.75\\\"\"},{\"specificationId\":177604,\"key\":\"Depth (in.)\",\"value\":\"24\\\"\"}]","bestSeller":false,"storeIds":[95,98,96,94,99,93,100],"saleOnWebsite":true,"implementWebSeeSalePriceInCart":false,"webPriceInactive":false,"subCategoryId":359,"categoryName":"Dishwashers","categoryId":350,"sku":"CDT858P2VS1","quantity":6,"bStock":false,"isThisOpenBox":false,"openBoxPrice":637.33,"sequence":619,"specificationPdf":"https://d1y6ucal9je0uy.cloudfront.net/specificationpdf/CDT858P2VS1-DIMS.pdf","floorMatrix":true,"soldQuantity":0,"productName":"Cafe 24 Inch Fully Integrated Built-In Smart Dishwasher with 16 Place Setting Capacity, 6 Wash Cycles Built-In Smart Dishwasher","hasBuyMoreSaveMore":true,"pdpSeoUrl":"cafe-24-fully-integrated-built-in-smart-dishwasher-cdt858p2vs1","status":"A","websiteActive":true,"deliveryRouteTokens":["routeClass_2_zip_1","routeClass_3_zip_2","routeClass_4_zip_3","routeClass_5_zip_4"],"isOpenBoxAvailable":true,"msrp":1449,"brandId":25,"conditionName":"Good","productSpecification":[{"specificationId":177598,"key":"Dishwasher Size (in.)","value":"24\""},{"specificationId":177687,"key":"Decibels (dBA)","value":"44 dBA"},{"specificationId":177662,"key":"Control Location","value":"Top Control"},{"specificationId":177600,"key":"Height (in.)","value":"34\""},{"specificationId":177602,"key":"Width (in.)","value":"23.75\""},{"specificationId":177604,"key":"Depth (in.)","value":"24\""}],"price_details":{"savingAmount":420,"crossedPrice":1449,"savingPercentage":28.99,"displayPrice":1029},"orderStatus":"","rebates":[{"rebateId":"931012850","rebateAmount":50,"rebateGuid":"NATIONWIDE_533202_CAFEA_20260101"},{"rebateId":"373","rebateAmount":null,"rebateGuid":null}],"clearance":false,"isPanelReady":false,"productList":[]},{"pid":325,"url":"https://www.homewiseappliance.com/cafe-24-fully-integrated-built-in-smart-dishwasher-cdt858p4vw2","price":1099,"title":"Cafe 24 Inch Fully Integrated Built-In Smart Dishwasher with 16 Place Setting Capacity, 6 Wash Cycles, Ultra Wash - Matte White","large_image":["https://d1y6ucal9je0uy.cloudfront.net/ProductImage/CDT858P4VW2.png"],"thumb_image":"https://d29l4doet7kzwj.cloudfront.net/ProductImage/31926ba87af89629.png","brand":"Cafe","isPremium":false,"isWifiEnabled":true,"isRebateAvailable":true,"isOpenBoxOnly":false,"productType":"product","sellableQuantity":15,"topDeal":true,"isInStock":true,"deliveryRouteDetails":["routeClass_2_deliveryRoute_4","routeClass_3_deliveryRoute_5","routeClass_3_deliveryRoute_7","routeClass_3_deliveryRoute_12","routeClass_4_deliveryRoute_13","routeClass_4_deliveryRoute_14","routeClass_5_deliveryRoute_15"],"applianceType":"Major Appliance","rebateIds":[396,373],"implementWebPdpCartMapOnly":false,"id":325,"productSpecification.Accepts_Panels":"No","specialBuy":false,"topSixSpecifications":"[{\"specificationId\":177892,\"key\":\"Dishwasher Size (in.)\",\"value\":\"24\\\"\"},{\"specificationId\":177981,\"key\":\"Decibels (dBA)\",\"value\":\"44 dBA\"},{\"specificationId\":177956,\"key\":\"Control Location\",\"value\":\"Top Control\"},{\"specificationId\":177894,\"key\":\"Height (in.)\",\"value\":\"34\\\"\"},{\"specificationId\":177896,\"key\":\"Width (in.)\",\"value\":\"23.75\\\"\"},{\"specificationId\":177898,\"key\":\"Depth (in.)\",\"value\":\"24\\\"\"}]","bestSeller":true,"storeIds":[99,93,100,98,97,94,95],"saleOnWebsite":true,"implementWebSeeSalePriceInCart":false,"webPriceInactive":false,"subCategoryId":359,"categoryName":"Dishwashers","categoryId":350,"sku":"CDT858P4VW2","quantity":15,"bStock":false,"isThisOpenBox":false,"sequence":961,"specificationPdf":"https://d1y6ucal9je0uy.cloudfront.net/specificationpdf/CDT858P4VW2-DIMS.pdf","floorMatrix":true,"soldQuantity":0,"productName":"Cafe 24 Inch Fully Integrated Built-In Smart Dishwasher with 16 Place Setting Capacity, 6 Wash Cycles, Ultra Wash - Matte White","hasBuyMoreSaveMore":true,"pdpSeoUrl":"cafe-24-fully-integrated-built-in-smart-dishwasher-cdt858p4vw2","status":"A","websiteActive":true,"deliveryRouteTokens":["routeClass_2_zip_1","routeClass_3_zip_2","routeClass_4_zip_3","routeClass_5_zip_4"],"isOpenBoxAvailable":false,"msrp":1549,"brandId":25,"productSpecification":[{"specificationId":177892,"key":"Dishwasher Size (in.)","value":"24\""},{"specificationId":177981,"key":"Decibels (dBA)","value":"44 dBA"},{"specificationId":177956,"key":"Control Location","value":"Top Control"},{"specificationId":177894,"key":"Height (in.)","value":"34\""},{"specificationId":177896,"key":"Width (in.)","value":"23.75\""},{"specificationId":177898,"key":"Depth (in.)","value":"24\""}],"price_details":{"savingAmount":450,"crossedPrice":1549,"savingPercentage":29.05,"displayPrice":1099},"orderStatus":"","rebates":[{"rebateId":"931012850","rebateAmount":50,"rebateGuid":"NATIONWIDE_533202_CAFEA_20260101"},{"rebateId":"373","rebateAmount":null,"rebateGuid":null}],"clearance":false,"isPanelReady":false,"productList":[]},{"pid":328,"url":"https://www.homewiseappliance.com/cafe-24-fully-integrated-dishwasher-with-42-dba-cdt828p2vs1","price":859,"title":"Cafe 24 Inch Fully Integrated Dishwasher with 16 Place Settings, 42 dBA, 5 Wash Cycles - Stainless Steel","large_image":["https://d1y6ucal9je0uy.cloudfront.net/ProductImage/CDT828P2VS1.png"],"thumb_image":"https://d29l4doet7kzwj.cloudfront.net/ProductImage/90fb82b8e2807643.png","brand":"Cafe","isPremium":false,"isWifiEnabled":false,"isRebateAvailable":true,"isOpenBoxOnly":false,"productType":"product","sellableQuantity":1,"topDeal":true,"isInStock":true,"deliveryRouteDetails":["routeClass_2_deliveryRoute_4","routeClass_3_deliveryRoute_5","routeClass_3_deliveryRoute_7","routeClass_3_deliveryRoute_12","routeClass_4_deliveryRoute_13","routeClass_4_deliveryRoute_14","routeClass_5_deliveryRoute_15"],"applianceType":"Major Appliance","rebateIds":[396,373],"implementWebPdpCartMapOnly":false,"id":328,"productSpecification.Accepts_Panels":"No","specialBuy":false,"topSixSpecifications":"[{\"specificationId\":177028,\"key\":\"Dishwasher Size (in.)\",\"value\":\"24\\\"\"},{\"specificationId\":177117,\"key\":\"Decibels (dBA)\",\"value\":\"42 dBA\"},{\"specificationId\":177090,\"key\":\"Control Location\",\"value\":\"Top Control\"},{\"specificationId\":177030,\"key\":\"Height (in.)\",\"value\":\"34\\\"\"},{\"specificationId\":177032,\"key\":\"Width (in.)\",\"value\":\"23.75\\\"\"},{\"specificationId\":177034,\"key\":\"Depth (in.)\",\"value\":\"24\\\"\"}]","bestSeller":false,"storeIds":[99,93,95,100,98,94],"saleOnWebsite":true,"implementWebSeeSalePriceInCart":false,"webPriceInactive":false,"subCategoryId":359,"categoryName":"Dishwashers","categoryId":350,"sku":"CDT828P2VS1","quantity":1,"bStock":false,"isThisOpenBox":false,"sequence":944,"specificationPdf":"https://d1y6ucal9je0uy.cloudfront.net/specificationpdf/CDT828P2VS1-DIMS.pdf","floorMatrix":true,"soldQuantity":0,"productName":"Cafe 24 Inch Fully Integrated Dishwasher with 16 Place Settings, 42 dBA, 5 Wash Cycles - Stainless Steel","hasBuyMoreSaveMore":true,"pdpSeoUrl":"cafe-24-fully-integrated-dishwasher-with-42-dba-cdt828p2vs1","status":"B","websiteActive":true,"deliveryRouteTokens":["routeClass_2_zip_1","routeClass_3_zip_2","routeClass_4_zip_3","routeClass_5_zip_4"],"isOpenBoxAvailable":false,"msrp":1249,"brandId":25,"productSpecification":[{"specificationId":177028,"key":"Dishwasher Size (in.)","value":"24\""},{"specificationId":177117,"key":"Decibels (dBA)","value":"42 dBA"},{"specificationId":177090,"key":"Control Location","value":"Top Control"},{"specificationId":177030,"key":"Height (in.)","value":"34\""},{"specificationId":177032,"key":"Width (in.)","value":"23.75\""},{"specificationId":177034,"key":"Depth (in.)","value":"24\""}],"price_details":{"savingAmount":390,"crossedPrice":1249,"savingPercentage":31.22,"displayPrice":859},"orderStatus":"On Order","rebates":[{"rebateId":"931012850","rebateAmount":25,"rebateGuid":"NATIONWIDE_533202_CAFEA_20260101"},{"rebateId":"373","rebateAmount":null,"rebateGuid":null}],"clearance":false,"isPanelReady":false,"productList":[]},{"pid":9414,"url":"https://www.homewiseappliance.com/samsung-fingerprint-resistant-51-dba-dishwasher-with-3rd-rack-in-stainless-steel-dw80cg4051sraa","price":479,"title":"Samsung 24 Inch 51 dBA Dishwasher with 3rd Rack, 15 Place Settings, Express 60 Cycle, 4 Wash Programs in Stainless Steel","large_image":["https://d1y6ucal9je0uy.cloudfront.net/ProductImage/DW80CG4051SR.png"],"thumb_image":"https://d29l4doet7kzwj.cloudfront.net/ProductImage/e7568c83e58d167a.png","brand":"Samsung Appliances","isPremium":false,"isWifiEnabled":false,"isRebateAvailable":true,"isOpenBoxOnly":false,"productType":"product","sellableQuantity":1,"topDeal":true,"isInStock":true,"deliveryRouteDetails":["routeClass_2_deliveryRoute_4","routeClass_3_deliveryRoute_5","routeClass_3_deliveryRoute_7","routeClass_3_deliveryRoute_12","routeClass_4_deliveryRoute_13","routeClass_4_deliveryRoute_14","routeClass_5_deliveryRoute_15"],"applianceType":"Major Appliance","rebateIds":[364,272,273,421,291],"implementWebPdpCartMapOnly":false,"id":9414,"productSpecification.Accepts_Panels":"No","specialBuy":false,"topSixSpecifications":"[{\"specificationId\":134210,\"key\":\"Dishwasher Size (in.)\",\"value\":\"24\\\"\"},{\"specificationId\":134282,\"key\":\"Decibels (dBA)\",\"value\":\"52 dBA\"},{\"specificationId\":134259,\"key\":\"Control Location\",\"value\":\"Top Control\"},{\"specificationId\":134212,\"key\":\"Height (in.)\",\"value\":\"33.75\\\"\"},{\"specificationId\":134214,\"key\":\"Width (in.)\",\"value\":\"23.75\\\"\"},{\"specificationId\":134216,\"key\":\"Depth (in.)\",\"value\":\"24.75\\\"\"}]","bestSeller":false,"storeIds":[99,93,100,98,96,97],"saleOnWebsite":true,"implementWebSeeSalePriceInCart":false,"webPriceInactive":false,"subCategoryId":359,"categoryName":"Dishwashers","categoryId":350,"sku":"DW80CG4051SR","quantity":1,"bStock":false,"isThisOpenBox":false,"sequence":1499,"specificationPdf":"https://d1y6ucal9je0uy.cloudfront.net/specificationpdf/DW80CG4051SR-DIMS.pdf","floorMatrix":true,"soldQuantity":0,"productName":"Samsung 24 Inch 51 dBA Dishwasher with 3rd Rack, 15 Place Settings, Express 60 Cycle, 4 Wash Programs in Stainless Steel","hasBuyMoreSaveMore":true,"pdpSeoUrl":"samsung-fingerprint-resistant-51-dba-dishwasher-with-3rd-rack-in-stainless-steel-dw80cg4051sraa","status":"B","websiteActive":true,"deliveryRouteTokens":["routeClass_2_zip_1","routeClass_3_zip_2","routeClass_4_zip_3","routeClass_5_zip_4"],"isOpenBoxAvailable":false,"msrp":799,"brandId":39,"productSpecification":[{"specificationId":134210,"key":"Dishwasher Size (in.)","value":"24\""},{"specificationId":134282,"key":"Decibels (dBA)","value":"52 dBA"},{"specificationId":134259,"key":"Control Location","value":"Top Control"},{"specificationId":134212,"key":"Height (in.)","value":"33.75\""},{"specificationId":134214,"key":"Width (in.)","value":"23.75\""},{"specificationId":134216,"key":"Depth (in.)","value":"24.75\""}],"price_details":{"savingAmount":320,"crossedPrice":799,"savingPercentage":40.05,"displayPrice":479},"orderStatus":"On Order","rebates":[{"rebateId":"507886051","rebateAmount":null,"rebateGuid":"NATIONWIDE_SAMSUNG_BMSMR2_20260401"},{"rebateId":"951555966","rebateAmount":null,"rebateGuid":"NATIONWIDE_SAMSUNG_2YWR_20260101"},{"rebateId":"836548743","rebateAmount":null,"rebateGuid":"NATIONWIDE_SAMSUNG_R2FG_20260101"},{"rebateId":"1252852203","rebateAmount":25,"rebateGuid":"NATIONWIDE_535396_SAMSUNG_20260617"},{"rebateId":"1964359275","rebateAmount":null,"rebateGuid":"NATIONWIDE_SAMSUNG_WR_20260101"}],"clearance":false,"isPanelReady":false,"productList":[]}],"category":{},"filter":{"categoryList":[{"id":350,"name":"Dishwashers","slug":"dishwashers","count":472,"categoryPicture":"https://d1y6ucal9je0uy.cloudfront.net/category-image/1740941455867_Dishwashers_(1).png"},{"id":395,"name":"Packages","slug":"kitchen-packages","count":195,"categoryPicture":"https://d1y6ucal9je0uy.cloudfront.net/category-image/1740941575735_Kitchen_Packages.png"},{"id":355,"name":"Cooking","slug":"cooking","count":1,"categoryPicture":"https://d1y6ucal9je0uy.cloudfront.net/category-image/1740941353491_Cooking_(1).png"}],"brands":[{"id":0,"name":"LG Appliances","count":25},{"id":0,"name":"Bosch","count":45},{"id":0,"name":"Frigidaire","count":40},{"id":0,"name":"KitchenAid","count":48},{"id":27,"name":"Whirlpool","count":66},{"id":0,"name":"GE Appliances","count":64},{"id":25,"name":"Cafe","count":18},{"id":0,"name":"Miele","count":16},{"id":0,"name":"Frigidaire Gallery","count":10},{"id":39,"name":"Samsung Appliances","count":95},{"id":0,"name":"GE Profile","count":22},{"id":0,"name":"Thermador","count":34},{"id":0,"name":"Fisher & Paykel","count":23},{"id":0,"name":"Signature Kitchen Suite","count":5},{"id":0,"name":"LG STUDIO","count":3},{"id":0,"name":"Frigidaire Pro","count":1},{"id":0,"name":"Haier","count":1},{"id":0,"name":"Zline","count":50},{"id":0,"name":"Jennair","count":18},{"id":0,"name":"Asko Appliances","count":14},{"id":0,"name":"Monogram","count":13},{"id":0,"name":"Maytag","count":11},{"id":0,"name":"Forno","count":9},{"id":0,"name":"Viking","count":8},{"id":0,"name":"Summit","count":6},{"id":0,"name":"Amana","count":5},{"id":0,"name":"Unique Appliances","count":4},{"id":0,"name":"Thor Kitchen","count":3},{"id":0,"name":"Beko Appliances","count":2},{"id":0,"name":"Bertazzoni","count":2},{"id":0,"name":"Electrolux","count":2},{"id":0,"name":"Gaggenau","count":2},{"id":0,"name":"Hotpoint Appliances","count":2},{"id":0,"name":"Foster","count":1},{"id":0,"name":"Smeg","count":1}],"specialOffers":{"title":"Special Offers","values":{"onSale":{"title":"On Sale","type":"checkbox-with-count","values":[{"name":"true","label":"On Sale","count":82}]},"rebateAvailable":{"title":"Rebates Available","type":"checkbox-with-count","values":[{"name":"true","label":"Rebates Available","count":440}]}}},"conditions":{"title":"Condition","values":{"new":{"title":"New","type":"checkbox-with-count","values":[{"name":"true","label":"New","count":435}]},"openBox":{"title":"Open Box","type":"checkbox-with-count","values":[{"name":"true","label":"Open Box","count":39}]}}},"price":{"title":"Pricing","type":"slider","values":{"start":269,"end":35250}},"staticFiltersCounts":{"inStockCount":91,"onSaleCount":82,"conditionNewCount":435,"conditionNewUnboxedCount":0,"openBoxCount":39,"rebatesCount":440,"onDisplayCount":53},"matchedBrandIds":[27,25,39],"dimensions":{"title":"Dimensions","values":{"height":{"title":"Height (in.)","type":"list","values":[{"start":3,"end":3.99,"count":1,"label":"3\" - 3.99\""},{"start":16,"end":16.99,"count":1,"label":"16\" - 16.99\""},{"start":17,"end":17.99,"count":4,"label":"17\" - 17.99\""},{"start":18,"end":18.99,"count":2,"label":"18\" - 18.99\""},{"start":32,"end":32.99,"count":102,"label":"32\" - 32.99\""},{"start":33,"end":33.99,"count":277,"label":"33\" - 33.99\""},{"start":34,"end":34.99,"count":56,"label":"34\" - 34.99\""},{"start":35,"end":35.99,"count":18,"label":"35\" - 35.99\""},{"start":36,"end":36.99,"count":10,"label":"36\" - 36.99\""},{"start":37,"end":37.99,"count":2,"label":"37\" - 37.99\""}]},"width":{"title":"Width (in.)","type":"list","values":[{"start":17,"end":17.99,"count":20,"label":"17\" - 17.99\""},{"start":18,"end":18.99,"count":27,"label":"18\" - 18.99\""},{"start":23,"end":23.99,"count":357,"label":"23\" - 23.99\""},{"start":24,"end":24.99,"count":67,"label":"24\" - 24.99\""},{"start":27,"end":27.99,"count":1,"label":"27\" - 27.99\""},{"start":31,"end":31.99,"count":1,"label":"31\" - 31.99\""}]},"depth":{"title":"Depth (in.)","type":"list","values":[{"start":18,"end":18.99,"count":3,"label":"18\" - 18.99\""},{"start":20,"end":20.99,"count":1,"label":"20\" - 20.99\""},{"start":21,"end":21.99,"count":30,"label":"21\" - 21.99\""},{"start":22,"end":22.99,"count":63,"label":"22\" - 22.99\""},{"start":23,"end":23.99,"count":102,"label":"23\" - 23.99\""},{"start":24,"end":24.99,"count":189,"label":"24\" - 24.99\""},{"start":25,"end":25.99,"count":39,"label":"25\" - 25.99\""},{"start":26,"end":26.99,"count":39,"label":"26\" - 26.99\""},{"start":27,"end":27.99,"count":7,"label":"27\" - 27.99\""}]}}},"apperance":{"title":"Appearance","values":{"installationType":{"title":"Installation Type","type":"list","values":[{"name":"Drop-In","count":1,"label":"Drop-In"}]},"colors":{"title":"Color","type":"list","values":[{"name":"Stainless Steel","count":233,"label":"Stainless Steel"},{"name":"White","count":51,"label":"White"},{"name":"Black Stainless Steel","count":30,"label":"Black Stainless Steel"},{"name":"Panel Ready","count":13,"label":"Panel Ready"},{"name":"Matte White","count":6,"label":"Matte White"},{"name":"Stainless Steel Look","count":1,"label":"Stainless Steel Look"},{"name":"Black","count":53,"label":"Black"},{"name":"Matte Black","count":10,"label":"Matte Black"},{"name":"Black Ore","count":8,"label":"Black Ore"},{"name":"Juniper","count":8,"label":"Juniper"},{"name":"Slate","count":6,"label":"Slate"},{"name":"Blue Gloss","count":4,"label":"Blue Gloss"},{"name":"Bronze","count":4,"label":"Bronze"},{"name":"Copper","count":4,"label":"Copper"},{"name":"Hand Hammered Copper","count":4,"label":"Hand Hammered Copper"},{"name":"Matte Blue","count":4,"label":"Matte Blue"},{"name":"Matte Red","count":4,"label":"Matte Red"},{"name":"Red Gloss","count":4,"label":"Red Gloss"},{"name":"Satin Stainless Steel","count":4,"label":"Satin Stainless Steel"},{"name":"Unfinished Wood","count":4,"label":"Unfinished Wood"},{"name":"Biscuit","count":3,"label":"Biscuit"},{"name":"White Glass","count":3,"label":"White Glass"},{"name":"Platinum Glass","count":2,"label":"Platinum Glass"},{"name":"Stainless steel","count":2,"label":"Stainless steel"},{"name":"Bisque","count":1,"label":"Bisque"},{"name":"Black Slate","count":1,"label":"Black Slate"},{"name":"Essence White","count":1,"label":"Essence White"},{"name":"Marshmallow White","count":1,"label":"Marshmallow White"},{"name":"Midnight Black","count":1,"label":"Midnight Black"},{"name":"Mint Green","count":1,"label":"Mint Green"},{"name":"Ocean Mist Turquoise","count":1,"label":"Ocean Mist Turquoise"},{"name":"Textured Steel","count":1,"label":"Textured Steel"}]}}},"features":{"title":"Features","values":{"sabbathMode":{"title":"Sabbath Mode","type":"checkbox","values":[{"name":"No","count":129,"label":"No"},{"name":"Yes","count":87,"label":"Yes"}]},"thirdRack":{"title":"Third Rack","type":"checkbox","values":[{"name":"Yes","count":254,"label":"Yes"}]},"controlLocation":{"title":"Control Location","type":"list","values":[{"name":"Top Control","count":348,"label":"Top Control"},{"name":"Front Control","count":124,"label":"Front Control"}]},"handleType":{"title":"Handle Type","type":"list","values":[{"name":"Pocket Handle","count":204,"label":"Pocket Handle"},{"name":"Bar Handle","count":236,"label":"Bar Handle"},{"name":"Bar handle","count":1,"label":"Bar handle"}]}}},"cooktopFeatures":{"title":"Cooktop Features","values":{"burnerStyle":{"title":"Burner Style","type":"list","values":[{"name":"Sealed Burner","count":1,"label":"Sealed Burner"}]},"typeOfFuel":{"title":"Type of Fuels","type":"list","values":[{"name":"Natural Gas","count":1,"label":"Natural Gas"}]},"noOfBurners":{"title":"Number of Burners","type":"list","values":[{"name":5,"count":1,"label":5}]},"downdraftVenting":{"title":"Downdraft Venting","type":"checkbox","values":[{"name":"No","count":1,"label":"No"}]},"continuousGates":{"title":"Continuous Gates","type":"checkbox","values":[{"name":"Yes","count":1,"label":"Yes"}]}}},"smartFeatures":{"title":"Smart Features","values":{"alexa":{"title":"Alexa","type":"checkbox","values":[{"name":"No","count":203,"label":"No"},{"name":"Yes","count":95,"label":"Yes"}]},"googleHome":{"title":"Google Home","type":"checkbox","values":[{"name":"No","count":209,"label":"No"},{"name":"Yes","count":87,"label":"Yes"}]},"remoteControl":{"title":"Remote Control","type":"checkbox","values":[{"name":"No","count":225,"label":"No"},{"name":"Yes","count":125,"label":"Yes"}]},"remoteDiagnostic":{"title":"Remote Diagnostic","type":"checkbox","values":[{"name":"No","count":121,"label":"No"},{"name":"Yes","count":109,"label":"Yes"}]},"remoteMonitoring":{"title":"Remote Monitoring","type":"checkbox","values":[{"name":"No","count":162,"label":"No"},{"name":"Yes","count":128,"label":"Yes"}]},"bluetooth":{"title":"Bluetooth","type":"checkbox","values":[{"name":"No","count":1,"label":"No"}]},"wifi":{"title":"Wifi","type":"checkbox","values":[{"name":"No","count":293,"label":"No"},{"name":"Yes","count":143,"label":"Yes"}]}}},"technicalDetails":{"title":"Technical Details","values":{"approvedForOutdoorUse":{"title":"Approved For Outdoor Use","type":"checkbox","values":[{"name":"No","count":362,"label":"No"},{"name":"Yes","count":1,"label":"Yes"}]},"lpConversion":{"title":"LP Conversion","type":"list","values":[{"name":"Yes","count":1,"label":"Yes"}]},"amps":{"title":"Amps","type":"list","values":[{"name":15,"count":306,"label":"15 A"},{"name":10,"count":41,"label":"10 A"},{"name":12,"count":38,"label":"12 A"},{"name":7.2,"count":3,"label":"7.2 A"},{"name":7.8,"count":1,"label":"7.8 A"},{"name":7.1,"count":17,"label":"7.1 A"},{"name":20,"count":8,"label":"20 A"},{"name":8.1,"count":3,"label":"8.1 A"},{"name":6.6,"count":2,"label":"6.6 A"},{"name":9.6,"count":2,"label":"9.6 A"},{"name":30,"count":2,"label":"30 A"},{"name":8,"count":1,"label":"8 A"},{"name":10.2,"count":1,"label":"10.2 A"},{"name":60,"count":1,"label":"60 A"}]},"voltage":{"title":"Voltage","type":"list","values":[{"name":120,"count":384,"label":"120 V"},{"name":110,"count":42,"label":"110 V"},{"name":115,"count":23,"label":"115 V"},{"name":208,"count":1,"label":"208 V"},{"name":240,"count":1,"label":"240 V"}]}}},"certifications":{"title":"Certifications","values":{"adaCompliant":{"title":"ADA Compliant","type":"checkbox","values":[{"name":"No","count":313,"label":"No"},{"name":"Yes","count":65,"label":"Yes"}]},"ceeRating":{"title":"CEE Rating","type":"list","values":[{"name":"Tier I","count":226,"label":"Tier I"},{"name":"No","count":1,"label":"No"},{"name":"Tier II","count":1,"label":"Tier II"}]},"energyStarRated":{"title":"Energy Star Rated","type":"checkbox","values":[{"name":"Yes","count":358,"label":"Yes"},{"name":"No","count":84,"label":"No"}]},"starKCertified":{"title":"Star-K Certified","type":"checkbox","values":[{"name":"No","count":31,"label":"No"},{"name":"Yes","count":27,"label":"Yes"}]}}},"laundryType":{"title":"Type","values":{"type":{"title":"Type","type":"list","values":[{"name":"Built In","count":444,"label":"Built In"},{"name":"Drawers","count":12,"label":"Drawers"},{"name":"Portable","count":6,"label":"Portable"}]}}}},"pagination":{"currentPage":1,"totalPages":134,"hasNextPage":true,"hasPrevPage":false,"totalCount":669,"limit":5},"autoCorrectedQuery":null,"did_you_mean":[]}